%YAML 1.1
%TAG !u! tag:unity3d.com,2011:
--- !u!1045 &1
EditorBuildSettings:
  m_ObjectHideFlags: 0
  serializedVersion: 2
  m_Scenes:
  - enabled: 1
    path: Assets/Scenes/Launcher111.unity
    guid: 26006bdfbcbd3fb4fb1102a2ea7f8bc4
  - enabled: 1
    path: Assets/Scenes/GameScene.unity
    guid: 6489192785ff1e545bc74a1e23871b83
  m_configObjects: {}
